\relax 
\providecommand\hyper@newdestlabel[2]{}
\catcode`"\active
\providecommand\HyperFirstAtBeginDocument{\AtBeginDocument}
\HyperFirstAtBeginDocument{\ifx\hyper@anchor\@undefined
\global\let\oldcontentsline\contentsline
\gdef\contentsline#1#2#3#4{\oldcontentsline{#1}{#2}{#3}}
\global\let\oldnewlabel\newlabel
\gdef\newlabel#1#2{\newlabelxx{#1}#2}
\gdef\newlabelxx#1#2#3#4#5#6{\oldnewlabel{#1}{{#2}{#3}}}
\AtEndDocument{\ifx\hyper@anchor\@undefined
\let\contentsline\oldcontentsline
\let\newlabel\oldnewlabel
\fi}
\fi}
\global\let\hyper@last\relax 
\gdef\HyperFirstAtBeginDocument#1{#1}
\providecommand\HyField@AuxAddToFields[1]{}
\providecommand\HyField@AuxAddToCoFields[2]{}
\select@language{ngerman}
\@writefile{toc}{\select@language{ngerman}}
\@writefile{lof}{\select@language{ngerman}}
\@writefile{lot}{\select@language{ngerman}}
\@writefile{lomycapequ}{\select@language{ngerman}}
\@writefile{toc}{\contentsline {section}{\numberline {1}Zielsetzung}{1}{section.1}}
\@writefile{toc}{\contentsline {section}{\numberline {2}Theoretische Grundlagen}{1}{section.2}}
\@writefile{toc}{\contentsline {subsection}{\numberline {2.1}Herleitung der magnetischen Momente}{1}{subsection.2.1}}
\@writefile{toc}{\contentsline {subsection}{\numberline {2.2}Wechselwirkungen mehrerer Drehimpulse}{2}{subsection.2.2}}
\@writefile{toc}{\contentsline {subsection}{\numberline {2.3}Spektroskopische Notation}{2}{subsection.2.3}}
\@writefile{toc}{\contentsline {subsection}{\numberline {2.4}Aufspaltung der Energieniveaus im homogenen Magnetfeld}{2}{subsection.2.4}}
\newlabel{wichtig}{{2.14}{3}{Aufspaltung der Energieniveaus im homogenen Magnetfeld}{equation.2.14}{}}
\@writefile{lof}{\contentsline {figure}{\numberline {1}{\ignorespaces Aufspaltung der Energieniveaus f\IeC {\"u}r $J=2$ [1]\relax }}{3}{figure.caption.2}}
\providecommand*\caption@xref[2]{\@setref\relax\@undefined{#1}}
\newlabel{fig:Abbildung}{{1}{3}{Aufspaltung der Energieniveaus für $J=2$ [1]\relax }{figure.caption.2}{}}
\@writefile{toc}{\contentsline {subsection}{\numberline {2.5}Auswahlregeln f\IeC {\"u}r \IeC {\"U}berg\IeC {\"a}nge zwischen aufgespalteten Energieniveaus}{3}{subsection.2.5}}
\@writefile{toc}{\contentsline {subsection}{\numberline {2.6}Normaler Zeeman-Effekt}{4}{subsection.2.6}}
\@writefile{toc}{\contentsline {subsection}{\numberline {2.7}Anomaler Zeeman-Effekt}{4}{subsection.2.7}}
\@writefile{toc}{\contentsline {section}{\numberline {3}Versuchsdurchf\IeC {\"u}hrung}{5}{section.3}}
\@writefile{toc}{\contentsline {subsection}{\numberline {3.1}Experimenteller Aufbau}{5}{subsection.3.1}}
\@writefile{lof}{\contentsline {figure}{\numberline {2}{\ignorespaces Versuchsaufbau der Messapparatur [1]\relax }}{5}{figure.caption.3}}
\newlabel{fig:Abbildung}{{2}{5}{Versuchsaufbau der Messapparatur [1]\relax }{figure.caption.3}{}}
\@writefile{toc}{\contentsline {subsection}{\numberline {3.2}Lummer-Gehrcke-Platte}{5}{subsection.3.2}}
\@writefile{lof}{\contentsline {figure}{\numberline {3}{\ignorespaces Interferenz in der Lummer-Gehrcke-Platte [1]\relax }}{6}{figure.caption.4}}
\newlabel{fig:Abbildung}{{3}{6}{Interferenz in der Lummer-Gehrcke-Platte [1]\relax }{figure.caption.4}{}}
\newlabel{Aufl}{{3.3}{6}{Lummer-Gehrcke-Platte}{equation.3.3}{}}
\@writefile{toc}{\contentsline {section}{\numberline {4}Auswertung}{6}{section.4}}
\@writefile{toc}{\contentsline {subsection}{\numberline {4.1}Versuchsvorbereitung}{6}{subsection.4.1}}
\@writefile{lot}{\contentsline {table}{\numberline {1}{\ignorespaces LAND\IeC {\'E}-Faktoren\relax }}{6}{table.caption.5}}
\newlabel{land}{{1}{6}{LANDÉ-Faktoren\relax }{table.caption.5}{}}
\@writefile{lot}{\contentsline {table}{\numberline {2}{\ignorespaces Landee-Faktoren $g_{ij}$ f\IeC {\"u}r rot\relax }}{7}{table.caption.6}}
\newlabel{landrot}{{2}{7}{Landee-Faktoren $g_{ij}$ für rot\relax }{table.caption.6}{}}
\@writefile{lot}{\contentsline {table}{\numberline {3}{\ignorespaces Landee-Faktoren $g_{ij}$ f\IeC {\"u}r rot\relax }}{7}{table.caption.7}}
\newlabel{landblau}{{3}{7}{Landee-Faktoren $g_{ij}$ für rot\relax }{table.caption.7}{}}
\@writefile{lot}{\contentsline {table}{\numberline {4}{\ignorespaces Berechnung der Aufl\IeC {\"o}sungsverm\IeC {\"o}gens\relax }}{7}{table.caption.8}}
\newlabel{Auf}{{4}{7}{Berechnung der Auflösungsvermögens\relax }{table.caption.8}{}}
\@writefile{toc}{\contentsline {subsection}{\numberline {4.2}Hysteresekurve}{8}{subsection.4.2}}
\@writefile{lot}{\contentsline {table}{\numberline {5}{\ignorespaces Messerwerte zur Erstellung der Hysteresekurve\relax }}{8}{table.caption.9}}
\newlabel{fig:Hyst1}{{5}{8}{Messerwerte zur Erstellung der Hysteresekurve\relax }{table.caption.9}{}}
\@writefile{lof}{\contentsline {figure}{\numberline {4}{\ignorespaces Hysteresekurve des Magneten\relax }}{9}{figure.caption.10}}
\newlabel{fig:Hyst2}{{4}{9}{Hysteresekurve des Magneten\relax }{figure.caption.10}{}}
\@writefile{toc}{\contentsline {subsection}{\numberline {4.3}Interferenzaufnahmen zur Bestimmung der Wellenl\IeC {\"a}ngen\IeC {\"a}nderung}{9}{subsection.4.3}}
\newlabel{\IeC {\"a}nderung}{{4.5}{9}{Interferenzaufnahmen zur Bestimmung der Wellenlängenänderung}{equation.4.5}{}}
\@writefile{toc}{\contentsline {subsubsection}{\numberline {4.3.1}$\sigma $-\IeC {\"U}bergang der roten Linie}{9}{subsubsection.4.3.1}}
\newlabel{rot}{{4.3.1}{9}{$\sigma $-Übergang der roten Linie}{subsubsection.4.3.1}{}}
\@writefile{lof}{\contentsline {figure}{\numberline {5}{\ignorespaces Bearbeitete Digitalaufnahme des roten Interferenzmusters\relax }}{10}{figure.caption.11}}
\newlabel{fig:rot1}{{5}{10}{Bearbeitete Digitalaufnahme des roten Interferenzmusters\relax }{figure.caption.11}{}}
\@writefile{lot}{\contentsline {table}{\numberline {6}{\ignorespaces Messwerte rotes Interferenzmuster und berechnete Wellenl\IeC {\"a}ngen\IeC {\"a}nderung $\delta \lambda $\relax }}{10}{table.caption.12}}
\newlabel{fig:rot2}{{6}{10}{Messwerte rotes Interferenzmuster und berechnete Wellenlängenänderung $\delta \lambda $\relax }{table.caption.12}{}}
\@writefile{toc}{\contentsline {subsubsection}{\numberline {4.3.2}$\sigma $-\IeC {\"U}bergang der blauen Linie}{11}{subsubsection.4.3.2}}
\@writefile{lof}{\contentsline {figure}{\numberline {6}{\ignorespaces Bearbeitete Digitalaufnahme des blauen Interferenzmusters des $\sigma $-\IeC {\"U}bergangs\relax }}{11}{figure.caption.13}}
\newlabel{fig:blau1}{{6}{11}{Bearbeitete Digitalaufnahme des blauen Interferenzmusters des $\sigma $-Übergangs\relax }{figure.caption.13}{}}
\@writefile{lot}{\contentsline {table}{\numberline {7}{\ignorespaces Messwerte blauen $\sigma $-Interferenzmuster und berechnete Wellenl\IeC {\"a}ngen\IeC {\"a}nderung $\delta \lambda $\relax }}{11}{table.caption.14}}
\newlabel{fig:blau2}{{7}{11}{Messwerte blauen $\sigma $-Interferenzmuster und berechnete Wellenlängenänderung $\delta \lambda $\relax }{table.caption.14}{}}
\@writefile{toc}{\contentsline {subsubsection}{\numberline {4.3.3}$\pi $-\IeC {\"U}bergang der blauen Linie}{12}{subsubsection.4.3.3}}
\@writefile{lof}{\contentsline {figure}{\numberline {7}{\ignorespaces Bearbeitete Digitalaufnahme des blauen Interferenzmusters des $\pi $-\IeC {\"U}bergangs\relax }}{12}{figure.caption.15}}
\newlabel{fig:blau3}{{7}{12}{Bearbeitete Digitalaufnahme des blauen Interferenzmusters des $\pi $-Übergangs\relax }{figure.caption.15}{}}
\@writefile{lot}{\contentsline {table}{\numberline {8}{\ignorespaces Messwerte blauen $\pi $-Interferenzmuster und berechnete Wellenl\IeC {\"a}ngen\IeC {\"a}nderung $\delta \lambda $\relax }}{12}{table.caption.16}}
\newlabel{fig:blau4}{{8}{12}{Messwerte blauen $\pi $-Interferenzmuster und berechnete Wellenlängenänderung $\delta \lambda $\relax }{table.caption.16}{}}
\@writefile{toc}{\contentsline {subsection}{\numberline {4.4}Bestimmung der Land\IeC {\'e}-Faktoren}{13}{subsection.4.4}}
\@writefile{lot}{\contentsline {table}{\numberline {9}{\ignorespaces Berechnung der Landee-Faktoren\relax }}{13}{table.caption.17}}
\newlabel{fig:Land}{{9}{13}{Berechnung der Landee-Faktoren\relax }{table.caption.17}{}}
\@writefile{toc}{\contentsline {section}{\numberline {5}Diskussion}{13}{section.5}}
\@writefile{toc}{\contentsline {section}{\numberline {6}Literaturverzeichnis}{14}{section.6}}
