\relax 
\providecommand\hyper@newdestlabel[2]{}
\catcode`"\active
\providecommand\HyperFirstAtBeginDocument{\AtBeginDocument}
\HyperFirstAtBeginDocument{\ifx\hyper@anchor\@undefined
\global\let\oldcontentsline\contentsline
\gdef\contentsline#1#2#3#4{\oldcontentsline{#1}{#2}{#3}}
\global\let\oldnewlabel\newlabel
\gdef\newlabel#1#2{\newlabelxx{#1}#2}
\gdef\newlabelxx#1#2#3#4#5#6{\oldnewlabel{#1}{{#2}{#3}}}
\AtEndDocument{\ifx\hyper@anchor\@undefined
\let\contentsline\oldcontentsline
\let\newlabel\oldnewlabel
\fi}
\fi}
\global\let\hyper@last\relax 
\gdef\HyperFirstAtBeginDocument#1{#1}
\providecommand\HyField@AuxAddToFields[1]{}
\providecommand\HyField@AuxAddToCoFields[2]{}
\select@language{ngerman}
\@writefile{toc}{\select@language{ngerman}}
\@writefile{lof}{\select@language{ngerman}}
\@writefile{lot}{\select@language{ngerman}}
\@writefile{toc}{\contentsline {section}{\numberline {1}Zielsetzung}{1}{section.1}}
\@writefile{toc}{\contentsline {section}{\numberline {2}Theoretische Grundlagen}{1}{section.2}}
\newlabel{muSz}{{2.3}{1}{Theoretische Grundlagen}{equation.2.3}{}}
\newlabel{Kraft}{{2.4}{1}{Theoretische Grundlagen}{equation.2.4}{}}
\@writefile{toc}{\contentsline {section}{\numberline {3}Versuchsaufbau}{2}{section.3}}
\@writefile{lof}{\contentsline {figure}{\numberline {1}{\ignorespaces Versuchsaufbau des Stern-Gerlach Versuchs [1]\relax }}{2}{figure.caption.2}}
\@writefile{lof}{\contentsline {figure}{\numberline {2}{\ignorespaces Versuchsaufbau des Stern-Gerlach Versuchs [1]\relax }}{3}{figure.caption.3}}
\newlabel{s}{{3.4}{3}{Versuchsaufbau}{equation.3.4}{}}
\@writefile{toc}{\contentsline {section}{\numberline {4}Auswertung}{4}{section.4}}
\@writefile{lof}{\contentsline {figure}{\numberline {3}{\ignorespaces Intensit\IeC {\"a}tsverteilung bei ausgeschaltetem Magnetfeld\relax }}{4}{figure.caption.4}}
\@writefile{lof}{\contentsline {figure}{\numberline {4}{\ignorespaces Intensit\IeC {\"a}tsverteilung bei eingeschaltetem Magnetfeld\relax }}{4}{figure.caption.5}}
\@writefile{lot}{\contentsline {table}{\numberline {1}{\ignorespaces Feldgradienten und die dazugeh\IeC {\"o}rigen Maxima der Energieaufpaltung.\relax }}{5}{table.caption.6}}
\providecommand*\caption@xref[2]{\@setref\relax\@undefined{#1}}
\newlabel{Ergebnisse}{{1}{5}{Feldgradienten und die dazugehörigen Maxima der Energieaufpaltung.\relax }{table.caption.6}{}}
\@writefile{lof}{\contentsline {figure}{\numberline {5}{\ignorespaces Zusammenhang zwischen dem Magnetfeldgradienten und dem linken Maximum der Aufspaltung\relax }}{5}{figure.caption.7}}
\@writefile{lof}{\contentsline {figure}{\numberline {6}{\ignorespaces Zusammenhang zwischen dem Magnetfeldgradienten und dem rechten Maximum der Aufspaltung\relax }}{6}{figure.caption.8}}
\@writefile{toc}{\contentsline {section}{\numberline {5}Diskussion}{7}{section.5}}
\@writefile{toc}{\contentsline {section}{\numberline {6}Literaturverzeichnis}{7}{section.6}}
\@writefile{toc}{\contentsline {section}{\numberline {7}Anhang}{8}{section.7}}
