\BOOKMARK [1][-]{section.1}{Zielsetzung}{}% 1
\BOOKMARK [1][-]{section.2}{Theoretische Grundlagen}{}% 2
\BOOKMARK [1][-]{section.3}{Versuchsaufbau}{}% 3
\BOOKMARK [1][-]{section.4}{Auswertung}{}% 4
\BOOKMARK [1][-]{section.5}{Diskussion}{}% 5
\BOOKMARK [1][-]{section.6}{Literaturverzeichnis}{}% 6
\BOOKMARK [1][-]{section.7}{Anhang}{}% 7
