\select@language {ngerman}
\contentsline {section}{\numberline {1}Zielsetzung}{1}{section.1}
\contentsline {section}{\numberline {2}Theoretische Grundlagen}{1}{section.2}
\contentsline {section}{\numberline {3}Versuchsaufbau}{2}{section.3}
\contentsline {section}{\numberline {4}Auswertung}{4}{section.4}
\contentsline {section}{\numberline {5}Diskussion}{7}{section.5}
\contentsline {section}{\numberline {6}Literaturverzeichnis}{7}{section.6}
\contentsline {section}{\numberline {7}Anhang}{8}{section.7}
