\relax 
\providecommand\hyper@newdestlabel[2]{}
\catcode`"\active
\providecommand\HyperFirstAtBeginDocument{\AtBeginDocument}
\HyperFirstAtBeginDocument{\ifx\hyper@anchor\@undefined
\global\let\oldcontentsline\contentsline
\gdef\contentsline#1#2#3#4{\oldcontentsline{#1}{#2}{#3}}
\global\let\oldnewlabel\newlabel
\gdef\newlabel#1#2{\newlabelxx{#1}#2}
\gdef\newlabelxx#1#2#3#4#5#6{\oldnewlabel{#1}{{#2}{#3}}}
\AtEndDocument{\ifx\hyper@anchor\@undefined
\let\contentsline\oldcontentsline
\let\newlabel\oldnewlabel
\fi}
\fi}
\global\let\hyper@last\relax 
\gdef\HyperFirstAtBeginDocument#1{#1}
\providecommand\HyField@AuxAddToFields[1]{}
\providecommand\HyField@AuxAddToCoFields[2]{}
\select@language{ngerman}
\@writefile{toc}{\select@language{ngerman}}
\@writefile{lof}{\select@language{ngerman}}
\@writefile{lot}{\select@language{ngerman}}
\@writefile{toc}{\contentsline {section}{\numberline {1}Zielsetzung}{1}{section.1}}
\@writefile{toc}{\contentsline {section}{\numberline {2}Theoretische Grundlagen}{1}{section.2}}
\@writefile{toc}{\contentsline {subsection}{\numberline {2.1}Zusammenhang zwischen Bahndrehimpuls und Magnetischem Moment}{1}{subsection.2.1}}
\newlabel{strom}{{2.3}{1}{Zusammenhang zwischen Bahndrehimpuls und Magnetischem Moment}{equation.2.3}{}}
\@writefile{toc}{\contentsline {subsection}{\numberline {2.2}Richtungsquantelung}{2}{subsection.2.2}}
\@writefile{lof}{\contentsline {figure}{\numberline {1}{\ignorespaces Richtungsquantelung eines Bahndrehimpulses [1]\relax }}{2}{figure.caption.2}}
\providecommand*\caption@xref[2]{\@setref\relax\@undefined{#1}}
\newlabel{richtung}{{1}{2}{Richtungsquantelung eines Bahndrehimpulses [1]\relax }{figure.caption.2}{}}
\@writefile{lof}{\contentsline {figure}{\numberline {2}{\ignorespaces Energieaufspaltung eines H\IeC {\"u}llenelektrons mit $l=2$ [1]\relax }}{3}{figure.caption.3}}
\newlabel{spaltung}{{2}{3}{Energieaufspaltung eines Hüllenelektrons mit $l=2$ [1]\relax }{figure.caption.3}{}}
\@writefile{toc}{\contentsline {subsection}{\numberline {2.3}Aufspaltung der Energieniveaus durch den Elektronenspin}{3}{subsection.2.3}}
\@writefile{lof}{\contentsline {figure}{\numberline {3}{\ignorespaces Richtungsquantelung des Elektronenspins mit $l=1/2$ [1]\relax }}{4}{figure.caption.4}}
\newlabel{spaltung}{{3}{4}{Richtungsquantelung des Elektronenspins mit $l=1/2$ [1]\relax }{figure.caption.4}{}}
\@writefile{toc}{\contentsline {section}{\numberline {3}Durchf\IeC {\"u}hrung}{4}{section.3}}
\@writefile{toc}{\contentsline {subsection}{\numberline {3.1}Messprinzip}{4}{subsection.3.1}}
\@writefile{lof}{\contentsline {figure}{\numberline {4}{\ignorespaces Aufspaltung des Energieniveaus [1]\relax }}{4}{figure.caption.5}}
\newlabel{spaltung}{{4}{4}{Aufspaltung des Energieniveaus [1]\relax }{figure.caption.5}{}}
\@writefile{toc}{\contentsline {subsection}{\numberline {3.2}Versuchsaufbau}{5}{subsection.3.2}}
\@writefile{lof}{\contentsline {figure}{\numberline {5}{\ignorespaces Schematische Darstellung der Messapparatur [1]\relax }}{5}{figure.caption.6}}
\newlabel{aufbau}{{5}{5}{Schematische Darstellung der Messapparatur [1]\relax }{figure.caption.6}{}}
\@writefile{lof}{\contentsline {figure}{\numberline {6}{\ignorespaces Blockschaltbild eines \IeC {\"U}berlagerungsempf\IeC {\"a}ngers [1]\relax }}{6}{figure.caption.7}}
\newlabel{aufbau}{{6}{6}{Blockschaltbild eines Überlagerungsempfängers [1]\relax }{figure.caption.7}{}}
\@writefile{toc}{\contentsline {subsection}{\numberline {3.3}Versuchsdurchf\IeC {\"u}hrung}{6}{subsection.3.3}}
\@writefile{toc}{\contentsline {section}{\numberline {4}Auswertung}{7}{section.4}}
\@writefile{toc}{\contentsline {subsection}{\numberline {4.1}Bestimmung des Land\IeC {\'e}-Faktors $g$}{7}{subsection.4.1}}
\@writefile{toc}{\contentsline {subsubsection}{\numberline {4.1.1}Messung der Stromst\IeC {\"a}rken an den Resonanzstellen f\IeC {\"u}r verschiedene Eingangsfrequenzen $f_E$}{7}{subsubsection.4.1.1}}
\@writefile{lof}{\contentsline {figure}{\numberline {7}{\ignorespaces Aufgenommene Stromst\IeC {\"a}rken und ihre Positionen bei einer Eingangsfrequenz (von links) $f_E$ = \SI {10,549}{MHz}, \SI {15,935}{MHz} sowie \SI {20,546}{MHz}\relax }}{7}{figure.caption.8}}
\@writefile{lof}{\contentsline {figure}{\numberline {8}{\ignorespaces Aufgenommene Stromst\IeC {\"a}rken und ihre Positionen bei einer Eingangsfrequenz von $f_E$ = \SI {25,000}{MHz} (links) und \SI {29,391}{MHz} (rechts)\relax }}{7}{figure.caption.9}}
\@writefile{toc}{\contentsline {subsubsection}{\numberline {4.1.2}Bestimmung der Resonanzstromst\IeC {\"a}rken}{8}{subsubsection.4.1.2}}
\@writefile{lot}{\contentsline {table}{\numberline {1}{\ignorespaces Die Stromst\IeC {\"a}rken der Resonanzstellen f\IeC {\"u}r parallel und antiparallel ausgerichtetes Magnetfeld der Helmholtzspule relativ zum Erdmagnetfeld.\relax }}{8}{table.caption.10}}
\@writefile{toc}{\contentsline {subsubsection}{\numberline {4.1.3}Bestimmung der Resonanzflussdichten}{9}{subsubsection.4.1.3}}
\@writefile{lot}{\contentsline {table}{\numberline {2}{\ignorespaces Die magnetischen Flussdichten der Resonanzstellen f\IeC {\"u}r parallel und antiparallel ausgerichtetes Magnetfeld sowie das errechnete Erdmagnetfeld.\relax }}{9}{table.caption.11}}
\@writefile{lof}{\contentsline {figure}{\numberline {9}{\ignorespaces Addierte Magnetflussdichten der Resonanzstellen in Abh\IeC {\"a}ngigkeit der Eingangsfrequenz\relax }}{10}{figure.caption.12}}
\newlabel{fig:Abbildung}{{9}{10}{Addierte Magnetflussdichten der Resonanzstellen in Abhängigkeit der Eingangsfrequenz\relax }{figure.caption.12}{}}
\@writefile{toc}{\contentsline {subsection}{\numberline {4.2}Bestimmung des Erdmagnetfeldes}{10}{subsection.4.2}}
\@writefile{toc}{\contentsline {section}{\numberline {5}Diskussion}{11}{section.5}}
\@writefile{lot}{\contentsline {table}{\numberline {3}{\ignorespaces \IeC {\"U}bersicht der experimentell bestimmten und theoretischen Werte des Land\IeC {\'e}-Faktors f\IeC {\"u}r Elektronen sowie des Erdmagnetfeldes. Ebenfalls sind die relativen Abweichungen berechnet.\relax }}{11}{table.caption.13}}
\@writefile{toc}{\contentsline {section}{\numberline {6}Literaturverzeichnis}{11}{section.6}}
