\relax 
\providecommand\hyper@newdestlabel[2]{}
\providecommand\HyperFirstAtBeginDocument{\AtBeginDocument}
\HyperFirstAtBeginDocument{\ifx\hyper@anchor\@undefined
\global\let\oldcontentsline\contentsline
\gdef\contentsline#1#2#3#4{\oldcontentsline{#1}{#2}{#3}}
\global\let\oldnewlabel\newlabel
\gdef\newlabel#1#2{\newlabelxx{#1}#2}
\gdef\newlabelxx#1#2#3#4#5#6{\oldnewlabel{#1}{{#2}{#3}}}
\AtEndDocument{\ifx\hyper@anchor\@undefined
\let\contentsline\oldcontentsline
\let\newlabel\oldnewlabel
\fi}
\fi}
\global\let\hyper@last\relax 
\gdef\HyperFirstAtBeginDocument#1{#1}
\providecommand\HyField@AuxAddToFields[1]{}
\providecommand\HyField@AuxAddToCoFields[2]{}
\@writefile{toc}{\contentsline {section}{\numberline {1}Overview}{1}{section.1}}
\@writefile{toc}{\contentsline {section}{\numberline {2}Introduction}{1}{section.2}}
\@writefile{toc}{\contentsline {subsection}{\numberline {2.1}The dye laser: predecessor of the diode laser}{1}{subsection.2.1}}
\@writefile{toc}{\contentsline {subsection}{\numberline {2.2}Structure of the diode laser}{1}{subsection.2.2}}
\@writefile{lof}{\contentsline {figure}{\numberline {1}{\ignorespaces Structure of the LD-chip [1]}}{2}{figure.1}}
\newlabel{LD_chip}{{1}{2}{Structure of the LD-chip [1]}{figure.1}{}}
\@writefile{toc}{\contentsline {subsection}{\numberline {2.3}Diode lasers with diffraction gratings}{2}{subsection.2.3}}
\@writefile{lof}{\contentsline {figure}{\numberline {2}{\ignorespaces Setup of the diode laser with grating [1]}}{3}{figure.2}}
\newlabel{pic2}{{2}{3}{Setup of the diode laser with grating [1]}{figure.2}{}}
\@writefile{toc}{\contentsline {subsubsection}{\numberline {2.3.1}Influences on Frequency}{3}{subsubsection.2.3.1}}
\@writefile{lof}{\contentsline {figure}{\numberline {3}{\ignorespaces Components of net gain [1]}}{3}{figure.3}}
\newlabel{LD_chip}{{3}{3}{Components of net gain [1]}{figure.3}{}}
\@writefile{toc}{\contentsline {subsubsection}{\numberline {2.3.2}Active medium}{3}{subsubsection.2.3.2}}
\@writefile{lof}{\contentsline {figure}{\numberline {4}{\ignorespaces Mode hops in the wavelength[1]}}{4}{figure.4}}
\newlabel{LD_chip}{{4}{4}{Mode hops in the wavelength[1]}{figure.4}{}}
\@writefile{toc}{\contentsline {subsubsection}{\numberline {2.3.3}Internal resonantor}{4}{subsubsection.2.3.3}}
\@writefile{toc}{\contentsline {subsection}{\numberline {2.4}Resonance}{4}{subsection.2.4}}
\@writefile{lof}{\contentsline {figure}{\numberline {5}{\ignorespaces Wavelength as a function of temperature[1]}}{5}{figure.5}}
\newlabel{pic3}{{5}{5}{Wavelength as a function of temperature[1]}{figure.5}{}}
\@writefile{toc}{\contentsline {subsubsection}{\numberline {2.4.1}External resonator}{5}{subsubsection.2.4.1}}
\@writefile{toc}{\contentsline {subsubsection}{\numberline {2.4.2}Interaction of different influences}{5}{subsubsection.2.4.2}}
\@writefile{lof}{\contentsline {figure}{\numberline {6}{\ignorespaces Optimal adjustment of the modes of the internal resonantor and the grating feedback and the external resonantor[1]}}{5}{figure.6}}
\newlabel{LD_chip}{{6}{5}{Optimal adjustment of the modes of the internal resonantor and the grating feedback and the external resonantor[1]}{figure.6}{}}
\@writefile{lof}{\contentsline {figure}{\numberline {7}{\ignorespaces Changing the modes by adjusting the grating angle[1]}}{6}{figure.7}}
\newlabel{LD_chip}{{7}{6}{Changing the modes by adjusting the grating angle[1]}{figure.7}{}}
\@writefile{toc}{\contentsline {section}{\numberline {3}Procedure and results}{6}{section.3}}
\@writefile{toc}{\contentsline {subsection}{\numberline {3.1}Operation of the diode laser}{6}{subsection.3.1}}
\@writefile{toc}{\contentsline {subsection}{\numberline {3.2}Observing rubidium lines}{7}{subsection.3.2}}
\@writefile{lof}{\contentsline {figure}{\numberline {8}{\ignorespaces Setup for observing rubidium lines[1]}}{7}{figure.8}}
\newlabel{LD_chip}{{8}{7}{Setup for observing rubidium lines[1]}{figure.8}{}}
\@writefile{lof}{\contentsline {figure}{\numberline {9}{\ignorespaces Circuit diagram to monitor the rubidium lines[1]}}{7}{figure.9}}
\newlabel{LD_chip}{{9}{7}{Circuit diagram to monitor the rubidium lines[1]}{figure.9}{}}
\@writefile{lof}{\contentsline {figure}{\numberline {10}{\ignorespaces Rubidium absorption lines[1]}}{9}{figure.10}}
\newlabel{LD_chip}{{10}{9}{Rubidium absorption lines[1]}{figure.10}{}}
\@writefile{toc}{\contentsline {subsubsection}{\numberline {3.2.1}Simultaneous current and piezo modulation}{9}{subsubsection.3.2.1}}
\@writefile{lof}{\contentsline {figure}{\numberline {11}{\ignorespaces Rubidium absorption lines[1]}}{9}{figure.11}}
\newlabel{LD_chip}{{11}{9}{Rubidium absorption lines[1]}{figure.11}{}}
\@writefile{toc}{\contentsline {subsection}{\numberline {3.3}Final observation of Rb lines}{9}{subsection.3.3}}
\@writefile{lof}{\contentsline {figure}{\numberline {12}{\ignorespaces Setup to correct the Rb absorption lines[1]}}{10}{figure.12}}
\newlabel{LD_chip}{{12}{10}{Setup to correct the Rb absorption lines[1]}{figure.12}{}}
\@writefile{lof}{\contentsline {figure}{\numberline {13}{\ignorespaces Corrected Rb absorption lines[1]}}{10}{figure.13}}
\newlabel{LD_chip}{{13}{10}{Corrected Rb absorption lines[1]}{figure.13}{}}
\@writefile{toc}{\contentsline {section}{\numberline {4}Discussion on the results}{10}{section.4}}
\@writefile{toc}{\contentsline {section}{\numberline {5}Bibliography}{12}{section.5}}
