\relax 
\providecommand\hyper@newdestlabel[2]{}
\catcode`"\active
\providecommand\HyperFirstAtBeginDocument{\AtBeginDocument}
\HyperFirstAtBeginDocument{\ifx\hyper@anchor\@undefined
\global\let\oldcontentsline\contentsline
\gdef\contentsline#1#2#3#4{\oldcontentsline{#1}{#2}{#3}}
\global\let\oldnewlabel\newlabel
\gdef\newlabel#1#2{\newlabelxx{#1}#2}
\gdef\newlabelxx#1#2#3#4#5#6{\oldnewlabel{#1}{{#2}{#3}}}
\AtEndDocument{\ifx\hyper@anchor\@undefined
\let\contentsline\oldcontentsline
\let\newlabel\oldnewlabel
\fi}
\fi}
\global\let\hyper@last\relax 
\gdef\HyperFirstAtBeginDocument#1{#1}
\providecommand\HyField@AuxAddToFields[1]{}
\providecommand\HyField@AuxAddToCoFields[2]{}
\select@language{ngerman}
\@writefile{toc}{\select@language{ngerman}}
\@writefile{lof}{\select@language{ngerman}}
\@writefile{lot}{\select@language{ngerman}}
\@writefile{lomycapequ}{\select@language{ngerman}}
\@writefile{toc}{\contentsline {section}{\numberline {1}Zielsetzung}{1}{section.1}}
\@writefile{toc}{\contentsline {section}{\numberline {2}Theoretische Grundlagen}{1}{section.2}}
\@writefile{toc}{\contentsline {subsection}{\numberline {2.1}Ultraschall}{1}{subsection.2.1}}
\newlabel{int}{{2.5}{1}{Ultraschall}{equation.2.5}{}}
\@writefile{toc}{\contentsline {subsection}{\numberline {2.2}Erzeugung von Ultraschall}{2}{subsection.2.2}}
\@writefile{lof}{\contentsline {figure}{\numberline {1}{\ignorespaces Schematische Abbildung der Verfahren zur Laufzeitmessung [1]\relax }}{3}{figure.caption.2}}
\providecommand*\caption@xref[2]{\@setref\relax\@undefined{#1}}
\newlabel{lauf}{{1}{3}{Schematische Abbildung der Verfahren zur Laufzeitmessung [1]\relax }{figure.caption.2}{}}
\@writefile{toc}{\contentsline {subsection}{\numberline {2.3}Schallfeld}{3}{subsection.2.3}}
\@writefile{toc}{\contentsline {subsection}{\numberline {2.4}Computertomographie}{3}{subsection.2.4}}
\@writefile{toc}{\contentsline {section}{\numberline {3}Durchf\IeC {\"u}hrung}{4}{section.3}}
\@writefile{toc}{\contentsline {subsection}{\numberline {3.1}Schallfeld-Messung}{4}{subsection.3.1}}
\@writefile{lof}{\contentsline {figure}{\numberline {2}{\ignorespaces Aufbau der Schallfeld-Messung [2]\relax }}{4}{figure.caption.3}}
\newlabel{auf1}{{2}{4}{Aufbau der Schallfeld-Messung [2]\relax }{figure.caption.3}{}}
\@writefile{toc}{\contentsline {subsection}{\numberline {3.2}CT-Messung}{4}{subsection.3.2}}
\@writefile{lof}{\contentsline {figure}{\numberline {3}{\ignorespaces Aufbau der CT-Messung [2]\relax }}{5}{figure.caption.4}}
\newlabel{auf2}{{3}{5}{Aufbau der CT-Messung [2]\relax }{figure.caption.4}{}}
\@writefile{toc}{\contentsline {section}{\numberline {4}Auswertung}{5}{section.4}}
\@writefile{toc}{\contentsline {subsection}{\numberline {4.1}Axiale Feldmessung}{5}{subsection.4.1}}
\@writefile{lof}{\contentsline {figure}{\numberline {4}{\ignorespaces Messwerte der axialen Feldmessung f\IeC {\"u}r Hin- und R\IeC {\"u}ckweg\relax }}{5}{figure.caption.5}}
\newlabel{auf3}{{4}{5}{Messwerte der axialen Feldmessung für Hin- und Rückweg\relax }{figure.caption.5}{}}
\@writefile{toc}{\contentsline {subsection}{\numberline {4.2}Laterale Feldmessung}{6}{subsection.4.2}}
\@writefile{lof}{\contentsline {figure}{\numberline {5}{\ignorespaces Messwerte der lateralen Feldmessung f\IeC {\"u}r Hin- und R\IeC {\"u}ckweg bei einem Abstand von 2 cm\relax }}{6}{figure.caption.6}}
\newlabel{auf4}{{5}{6}{Messwerte der lateralen Feldmessung für Hin- und Rückweg bei einem Abstand von 2 cm\relax }{figure.caption.6}{}}
\@writefile{lof}{\contentsline {figure}{\numberline {6}{\ignorespaces Messwerte der lateralen Feldmessung f\IeC {\"u}r Hin- und R\IeC {\"u}ckweg bei einem Abstand von 4 cm\relax }}{7}{figure.caption.7}}
\newlabel{auf5}{{6}{7}{Messwerte der lateralen Feldmessung für Hin- und Rückweg bei einem Abstand von 4 cm\relax }{figure.caption.7}{}}
\@writefile{lof}{\contentsline {figure}{\numberline {7}{\ignorespaces Messwerte der lateralen Feldmessung f\IeC {\"u}r Hin- und R\IeC {\"u}ckweg bei einem Abstand von 5 cm\relax }}{7}{figure.caption.8}}
\newlabel{auf6}{{7}{7}{Messwerte der lateralen Feldmessung für Hin- und Rückweg bei einem Abstand von 5 cm\relax }{figure.caption.8}{}}
\@writefile{lof}{\contentsline {figure}{\numberline {8}{\ignorespaces Messwerte der lateralen Feldmessung f\IeC {\"u}r Hin- und R\IeC {\"u}ckweg bei einem Abstand von 6 cm\relax }}{8}{figure.caption.9}}
\newlabel{auf7}{{8}{8}{Messwerte der lateralen Feldmessung für Hin- und Rückweg bei einem Abstand von 6 cm\relax }{figure.caption.9}{}}
\@writefile{lof}{\contentsline {figure}{\numberline {9}{\ignorespaces Messwerte der lateralen Feldmessung f\IeC {\"u}r Hin- und R\IeC {\"u}ckweg bei einem Abstand von 8 cm\relax }}{8}{figure.caption.10}}
\newlabel{auf8}{{9}{8}{Messwerte der lateralen Feldmessung für Hin- und Rückweg bei einem Abstand von 8 cm\relax }{figure.caption.10}{}}
\@writefile{toc}{\contentsline {subsection}{\numberline {4.3}CT-Scans einer zylinderf\IeC {\"o}rmigen Probe}{8}{subsection.4.3}}
\@writefile{lof}{\contentsline {figure}{\numberline {10}{\ignorespaces CT-D\IeC {\"a}mpfungsaufnahmen f\IeC {\"u}r verschiedene Einstellungen\relax }}{9}{figure.caption.11}}
\newlabel{auf9}{{10}{9}{CT-Dämpfungsaufnahmen für verschiedene Einstellungen\relax }{figure.caption.11}{}}
\@writefile{lof}{\contentsline {figure}{\numberline {11}{\ignorespaces CT-D\IeC {\"a}mpfungsaufnahmen mit Filter f\IeC {\"u}r verschiedene Einstellungen\relax }}{9}{figure.caption.12}}
\newlabel{auf10}{{11}{9}{CT-Dämpfungsaufnahmen mit Filter für verschiedene Einstellungen\relax }{figure.caption.12}{}}
\@writefile{lof}{\contentsline {figure}{\numberline {12}{\ignorespaces CT-Schallgeschwindigkeitsaufnahmen f\IeC {\"u}r verschiedene Einstellungen\relax }}{10}{figure.caption.13}}
\newlabel{auf11}{{12}{10}{CT-Schallgeschwindigkeitsaufnahmen für verschiedene Einstellungen\relax }{figure.caption.13}{}}
\@writefile{lof}{\contentsline {figure}{\numberline {13}{\ignorespaces CT-Schallgeschwindigkeitsaufnahmen mit Filter f\IeC {\"u}r verschiedene Einstellungen\relax }}{10}{figure.caption.14}}
\newlabel{auf12}{{13}{10}{CT-Schallgeschwindigkeitsaufnahmen mit Filter für verschiedene Einstellungen\relax }{figure.caption.14}{}}
\@writefile{toc}{\contentsline {section}{\numberline {5}Diskussion}{10}{section.5}}
\@writefile{toc}{\contentsline {section}{\numberline {6}Literaturverzeichnis}{11}{section.6}}
